Skill development

Year Dropdown		Month Dropdown
		
			Generate  Clear


Employee Id 		Rating
		
	a	radio(25/50/75/100)
	b	radio(25/50/75/100)
	c	radio(25/50/75/100)


			Submit



employee_id	rating	 	month		year
